<svg width="22" height="43">
  <path d="M19.52 42.555c.284.297.638.445 1.028.445s.743-.148 1.027-.445a1.572 1.572 0 0 0 0-2.15L3.507 21.5 21.575 2.595a1.572 1.572 0 0 0 0-2.15 1.409 1.409 0 0 0-2.055 0L.425 20.425a1.572 1.572 0 0 0 0 2.15l19.095 19.98z" />
</svg>
