<svg width="43" height="40">
  <g fill-rule="nonzero">
    <path d="M39.401 0H3.6C1.614 0 0 1.632 0 3.639v27.174c0 2.006 1.614 3.639 3.599 3.639h13.438v2.945h-1.288c-.71 0-1.287.583-1.287 1.301 0 .72.576 1.302 1.287 1.302h11.502c.71 0 1.287-.583 1.287-1.302 0-.718-.576-1.301-1.287-1.301h-1.288v-2.945h13.438c1.985 0 3.599-1.633 3.599-3.64V3.64C43 1.632 41.386 0 39.401 0zM23.388 37.397h-3.776V34.45h3.776v2.946zm17.037-6.584c0 .57-.46 1.035-1.024 1.035H3.6a1.03 1.03 0 0 1-1.024-1.035v-3.217h37.85v3.217zm0-5.82H2.575V3.638c0-.571.46-1.035 1.024-1.035H39.4a1.03 1.03 0 0 1 1.024 1.035v21.353z"/>
    <path d="M23 5c-4.963 0-9 4.037-9 9s4.037 9 9 9 9-4.037 9-9-4.037-9-9-9zm0 15.354A6.362 6.362 0 0 1 16.645 14c0-3.05 2.161-5.605 5.032-6.215V14c0 .73.593 1.323 1.323 1.323h6.215c-.61 2.87-3.165 5.031-6.215 5.031zm1.323-7.677V7.785a6.373 6.373 0 0 1 4.892 4.892h-4.892z"/>
  </g>
</svg>
